…
Reading the data

brexit_results <- read_csv("https://raw.githubusercontent.com/kostis-christodoulou/am01/master/data/brexit_results.csv")

Plotting the Information

brexit_results_long <- pivot_longer(brexit_results, 
                                    col = c("con_2015", "lab_2015","ld_2015", "ukip_2015"), 
                                    names_to = "party", 
                                    values_to = "party_percentage") %>%
  summarize(Seat, party, party_percentage, leave_share)
brexit_results_long

## # A tibble: 2,528 × 4
##    Seat                     party     party_percentage leave_share
##    <chr>                    <chr>                <dbl>       <dbl>
##  1 Aldershot                con_2015             50.6         57.9
##  2 Aldershot                lab_2015             18.3         57.9
##  3 Aldershot                ld_2015               8.82        57.9
##  4 Aldershot                ukip_2015            17.9         57.9
##  5 Aldridge-Brownhills      con_2015             52.0         67.8
##  6 Aldridge-Brownhills      lab_2015             22.4         67.8
##  7 Aldridge-Brownhills      ld_2015               3.37        67.8
##  8 Aldridge-Brownhills      ukip_2015            19.6         67.8
##  9 Altrincham and Sale West con_2015             53.0         38.6
## 10 Altrincham and Sale West lab_2015             26.7         38.6
## # … with 2,518 more rows
…
