…
#converting to long format
tidyweather <- year_months %>%
  pivot_longer(2:13, names_to = "Month", values_to = "delta")
#tidyweather

Weather anomalies for each month

tidyweather <- tidyweather %>%
  mutate(date = ymd(paste(as.character(Year), Month, "1")),
         month = month(date, label=TRUE),
         year = year(date))
tidyweather

## # A tibble: 1,716 × 6
##     Year Month delta date       month  year
##    <dbl> <chr> <dbl> <date>     <ord> <dbl>
##  1  1880 Jan   -0.39 1880-01-01 Jan    1880
##  2  1880 Feb   -0.53 1880-02-01 Feb    1880
##  3  1880 Mar   -0.23 1880-03-01 Mar    1880
##  4  1880 Apr   -0.3  1880-04-01 Apr    1880
##  5  1880 May   -0.05 1880-05-01 May    1880
##  6  1880 Jun   -0.18 1880-06-01 Jun    1880
##  7  1880 Jul   -0.21 1880-07-01 Jul    1880
##  8  1880 Aug   -0.25 1880-08-01 Aug    1880
##  9  1880 Sep   -0.24 1880-09-01 Sep    1880
## 10  1880 Oct   -0.3  1880-10-01 Oct    1880
## # … with 1,706 more rows
…
